﻿


EVENT   1
 PAGE   1
  ChangeSwitch(31,31,1)
  Wait(60)
  222()
  Wait(15)
  250(bytes(0x04,0x08,0x6f,0x3a,0x0c,0x52,0x50,0x47,0x3a,0x3a,0x53,0x45,0x08,0x3a,0x0a,0x40,0x6e,0x61,0x6d,0x65,0x49,0x22,0x0f,0x6d,0x6f,0x6e,0x5f,0x65,0x61,0x72,0x74,0x68,0x32,0x06,0x3a,0x06,0x45,0x54,0x3a,0x0b,0x40,0x70,0x69,0x74,0x63,0x68,0x69,0x69,0x3a,0x0c,0x40,0x76,0x6f,0x6c,0x75,0x6d,0x65,0x69,0x69))
  225(7,7,120,false)
  If(0,4,0)
   ShowMessageFace("alice_fc6",1,0,2,1)
   ShowMessage("\\n<Alice>Hurry, it's dangerous here!")
   0()
  EndIf()
  If(0,5,0)
   ShowMessageFace("iriasu_fc4",7,0,2,2)
   ShowMessage("\\n<Ilias>We need to hurry, this place won't last!")
   0()
  EndIf()
  205(-1,bytes(0x04,0x08,0x6f,0x3a,0x13,0x52,0x50,0x47,0x3a,0x3a,0x4d,0x6f,0x76,0x65,0x52,0x6f,0x75,0x74,0x65,0x09,0x3a,0x0c,0x40,0x72,0x65,0x70,0x65,0x61,0x74,0x46,0x3a,0x0f,0x40,0x73,0x6b,0x69,0x70,0x70,0x61,0x62,0x6c,0x65,0x46,0x3a,0x0a,0x40,0x77,0x61,0x69,0x74,0x54,0x3a,0x0a,0x40,0x6c,0x69,0x73,0x74,0x5b,0x0e,0x6f,0x3a,0x15,0x52,0x50,0x47,0x3a,0x3a,0x4d,0x6f,0x76,0x65,0x43,0x6f,0x6d,0x6d,0x61,0x6e,0x64,0x07,0x3a,0x0a,0x40,0x63,0x6f,0x64,0x65,0x69,0x22,0x3a,0x10,0x40,0x70,0x61,0x72,0x61,0x6d,0x65,0x74,0x65,0x72,0x73,0x5b,0x06,0x69,0x0a,0x6f,0x3b,0x0a,0x07,0x3b,0x0b,0x69,0x23,0x3b,0x0c,0x5b,0x06,0x69,0x09,0x6f,0x3b,0x0a,0x07,0x3b,0x0b,0x69,0x06,0x3b,0x0c,0x5b,0x00,0x6f,0x3b,0x0a,0x07,0x3b,0x0b,0x69,0x06,0x3b,0x0c,0x5b,0x00,0x6f,0x3b,0x0a,0x07,0x3b,0x0b,0x69,0x06,0x3b,0x0c,0x5b,0x00,0x6f,0x3b,0x0a,0x07,0x3b,0x0b,0x69,0x06,0x3b,0x0c,0x5b,0x00,0x6f,0x3b,0x0a,0x07,0x3b,0x0b,0x69,0x06,0x3b,0x0c,0x5b,0x00,0x6f,0x3b,0x0a,0x07,0x3b,0x0b,0x69,0x06,0x3b,0x0c,0x5b,0x00,0x6f,0x3b,0x0a,0x07,0x3b,0x0b,0x69,0x00,0x3b,0x0c,0x5b,0x00))
  250(bytes(0x04,0x08,0x6f,0x3a,0x0c,0x52,0x50,0x47,0x3a,0x3a,0x53,0x45,0x08,0x3a,0x0a,0x40,0x6e,0x61,0x6d,0x65,0x49,0x22,0x0e,0x44,0x61,0x72,0x6b,0x6e,0x65,0x73,0x73,0x31,0x06,0x3a,0x06,0x45,0x54,0x3a,0x0b,0x40,0x70,0x69,0x74,0x63,0x68,0x69,0x69,0x3a,0x0c,0x40,0x76,0x6f,0x6c,0x75,0x6d,0x65,0x69,0x55))
  ChangeSwitch(31,31,0)
  205(-1,bytes(0x04,0x08,0x6f,0x3a,0x13,0x52,0x50,0x47,0x3a,0x3a,0x4d,0x6f,0x76,0x65,0x52,0x6f,0x75,0x74,0x65,0x09,0x3a,0x0c,0x40,0x72,0x65,0x70,0x65,0x61,0x74,0x46,0x3a,0x0f,0x40,0x73,0x6b,0x69,0x70,0x70,0x61,0x62,0x6c,0x65,0x46,0x3a,0x0a,0x40,0x77,0x61,0x69,0x74,0x54,0x3a,0x0a,0x40,0x6c,0x69,0x73,0x74,0x5b,0x07,0x6f,0x3a,0x15,0x52,0x50,0x47,0x3a,0x3a,0x4d,0x6f,0x76,0x65,0x43,0x6f,0x6d,0x6d,0x61,0x6e,0x64,0x07,0x3a,0x0a,0x40,0x63,0x6f,0x64,0x65,0x69,0x17,0x3a,0x10,0x40,0x70,0x61,0x72,0x61,0x6d,0x65,0x74,0x65,0x72,0x73,0x5b,0x00,0x6f,0x3b,0x0a,0x07,0x3b,0x0b,0x69,0x00,0x3b,0x0c,0x5b,0x00))
  ShowSpeechBalloon(-1,1,false)
  ShowMessageFace("ruka_fc1",0,0,2,3)
  ShowMessage("\\n<Luka>No way, she's still alive...")
  ShowMessageFace("adramelek_fc1",6,0,2,4)
  ShowMessage("\\n<Adramelech>I won't let you escape... You will disappear along with me...")
  ShowMessageFace("",0,0,2,5)
  ShowMessage("Adramelech clings to Luka's body!")
  ShowMessageFace("ruka_fc1",0,0,2,6)
  ShowMessage("\\n<Luka>Ghh, let go!")
  If(0,4,0)
   ShowMessageFace("alice_fc6",0,0,2,7)
   ShowMessage("\\n<Alice>There's no time to fight here!")
   0()
  EndIf()
  If(0,5,0)
   ShowMessageFace("iriasu_fc4",5,0,2,8)
   ShowMessage("\\n<Ilias>This place will disappear any minute. We don't have time to fight!")
   0()
  EndIf()
  Wait(15)
  250(bytes(0x04,0x08,0x6f,0x3a,0x0c,0x52,0x50,0x47,0x3a,0x3a,0x53,0x45,0x08,0x3a,0x0a,0x40,0x6e,0x61,0x6d,0x65,0x49,0x22,0x0f,0x6d,0x6f,0x6e,0x5f,0x65,0x61,0x72,0x74,0x68,0x32,0x06,0x3a,0x06,0x45,0x54,0x3a,0x0b,0x40,0x70,0x69,0x74,0x63,0x68,0x69,0x69,0x3a,0x0c,0x40,0x76,0x6f,0x6c,0x75,0x6d,0x65,0x69,0x69))
  225(7,7,120,false)
  ShowMessageFace("adramelek_fc1",6,0,2,9)
  ShowMessage("\\n<Adramelech>Disappear... disappear... disappear...")
  ShowMessageFace("",0,0,2,10)
  ShowMessage("As the floor around me collapses, the floor beneath me starts to fall as well. But as I ready my next move...")
  250(bytes(0x04,0x08,0x6f,0x3a,0x0c,0x52,0x50,0x47,0x3a,0x3a,0x53,0x45,0x08,0x3a,0x0a,0x40,0x6e,0x61,0x6d,0x65,0x49,0x22,0x0f,0x6d,0x6f,0x6e,0x5f,0x73,0x6c,0x61,0x73,0x68,0x33,0x06,0x3a,0x06,0x45,0x54,0x3a,0x0b,0x40,0x70,0x69,0x74,0x63,0x68,0x69,0x69,0x3a,0x0c,0x40,0x76,0x6f,0x6c,0x75,0x6d,0x65,0x69,0x69))
  PictureDisplay(1,"sys_cut",0,0,0,0,100,100,0,0)
  PictureMove(1,null,0,0,0,0,100,100,255,0,30,true)
  Wait(15)
  241(bytes(0x04,0x08,0x6f,0x3a,0x0d,0x52,0x50,0x47,0x3a,0x3a,0x42,0x47,0x4d,0x08,0x3a,0x0a,0x40,0x6e,0x61,0x6d,0x65,0x49,0x22,0x0c,0x62,0x6f,0x73,0x73,0x30,0x2d,0x33,0x06,0x3a,0x06,0x45,0x54,0x3a,0x0c,0x40,0x76,0x6f,0x6c,0x75,0x6d,0x65,0x69,0x69,0x3a,0x0b,0x40,0x70,0x69,0x74,0x63,0x68,0x69,0x69))
  PictureDisplay(5,"iv_marcellus1",0,0,0,0,100,100,255,0)
  PictureClear(1)
  ChangeSwitch(31,31,1)
  ShowMessageFace("",0,0,2,11)
  ShowMessage("It's a flash that lasts only an instant.")
  ShowMessageFace("",0,0,2,12)
  ShowMessage("A shadow that leapt in from nowhere cuts Adramelech in two from behind. Adramelech's bisected remains disappear into subspace...")
  PictureDisplay(5,"80_marcellus_st01",0,0,0,0,100,100,255,0)
  ShowMessageFace("marcellus_fc1",0,0,2,13)
  ShowMessage("\\n<???>......")
  ShowMessageFace("ruka_fc1",0,0,2,14)
  ShowMessage("\\n<Luka>It, it can't be...")
  ShowMessageFace("",0,0,2,15)
  ShowMessage("The unforgettable face I've been yearning to see again for so long. The one who I've been chasing all this time--")
  ShowMessageFace("ruka_fc1",0,0,2,16)
  ShowMessage("\\n<Luka>D... Dad?!")
  ShowMessageFace("marcellus_fc1",0,0,2,17)
  ShowMessage("\\n<Marcellus>Luka... you protect your own world. I will protect everything else...")
  PictureDisplay(5,"iv_marcellus2",0,0,0,0,100,100,0,0)
  PictureMove(5,null,0,0,0,0,100,100,255,0,60,true)
  ShowMessageFace("",0,0,2,18)
  ShowMessage("Just like that, Dad turns his back to leave, striding towards a fading alternate reality.")
  ShowMessageFace("ruka_fc1",0,0,2,19)
  ShowMessage("\\n<Luka>Dad, wait!!")
  205(-1,bytes(0x04,0x08,0x6f,0x3a,0x13,0x52,0x50,0x47,0x3a,0x3a,0x4d,0x6f,0x76,0x65,0x52,0x6f,0x75,0x74,0x65,0x09,0x3a,0x0c,0x40,0x72,0x65,0x70,0x65,0x61,0x74,0x46,0x3a,0x0f,0x40,0x73,0x6b,0x69,0x70,0x70,0x61,0x62,0x6c,0x65,0x46,0x3a,0x0a,0x40,0x77,0x61,0x69,0x74,0x54,0x3a,0x0a,0x40,0x6c,0x69,0x73,0x74,0x5b,0x07,0x6f,0x3a,0x15,0x52,0x50,0x47,0x3a,0x3a,0x4d,0x6f,0x76,0x65,0x43,0x6f,0x6d,0x6d,0x61,0x6e,0x64,0x07,0x3a,0x0a,0x40,0x63,0x6f,0x64,0x65,0x69,0x15,0x3a,0x10,0x40,0x70,0x61,0x72,0x61,0x6d,0x65,0x74,0x65,0x72,0x73,0x5b,0x00,0x6f,0x3b,0x0a,0x07,0x3b,0x0b,0x69,0x00,0x3b,0x0c,0x5b,0x00))
  Wait(15)
  250(bytes(0x04,0x08,0x6f,0x3a,0x0c,0x52,0x50,0x47,0x3a,0x3a,0x53,0x45,0x08,0x3a,0x0a,0x40,0x6e,0x61,0x6d,0x65,0x49,0x22,0x0f,0x6d,0x6f,0x6e,0x5f,0x65,0x61,0x72,0x74,0x68,0x32,0x06,0x3a,0x06,0x45,0x54,0x3a,0x0b,0x40,0x70,0x69,0x74,0x63,0x68,0x69,0x69,0x3a,0x0c,0x40,0x76,0x6f,0x6c,0x75,0x6d,0x65,0x69,0x69))
  225(7,7,120,false)
  If(0,4,0)
   ShowMessageFace("alice_fc6",1,0,2,20)
   ShowMessage("\\n<Alice>Don't chase him, Luka! This place is falling apart! We need to escape!")
   0()
  EndIf()
  If(0,5,0)
   ShowMessageFace("iriasu_fc4",7,0,2,21)
   ShowMessage("\\n<Ilias>We can't afford to chase after him! We must escape!")
   0()
  EndIf()
  ShowMessageFace("ruka_fc1",0,0,2,22)
  ShowMessage("\\n<Luka>......")
  ShowMessageFace("",0,0,2,23)
  ShowMessage("I burn my father's back into my eyes as his image vanishes into that other world.")
  ShowMessageFace("",0,0,2,24)
  ShowMessage("He wasn't caught in the collapse. He traveled into another reality...")
  PictureMove(5,null,0,0,0,0,100,100,0,0,60,true)
  PictureClear(5)
  ShowMessageFace("ruka_fc1",0,0,2,25)
  ShowMessage("\\n<Luka>...We should escape as well!")
  If(0,4,0)
   ShowMessageFace("alice_fc5",2,0,2,26)
   ShowMessage("\\n<Alice>We've run out of time! Hurry!")
   0()
  EndIf()
  If(0,5,0)
   ShowMessageFace("iriasu_fc4",7,0,2,27)
   ShowMessage("\\n<Ilias>We have no time left! Hurry!")
   0()
  EndIf()
  Wait(15)
  250(bytes(0x04,0x08,0x6f,0x3a,0x0c,0x52,0x50,0x47,0x3a,0x3a,0x53,0x45,0x08,0x3a,0x0a,0x40,0x6e,0x61,0x6d,0x65,0x49,0x22,0x0f,0x6d,0x6f,0x6e,0x5f,0x65,0x61,0x72,0x74,0x68,0x32,0x06,0x3a,0x06,0x45,0x54,0x3a,0x0b,0x40,0x70,0x69,0x74,0x63,0x68,0x69,0x69,0x3a,0x0c,0x40,0x76,0x6f,0x6c,0x75,0x6d,0x65,0x69,0x69))
  225(7,7,120,false)
  205(-1,bytes(0x04,0x08,0x6f,0x3a,0x13,0x52,0x50,0x47,0x3a,0x3a,0x4d,0x6f,0x76,0x65,0x52,0x6f,0x75,0x74,0x65,0x09,0x3a,0x0c,0x40,0x72,0x65,0x70,0x65,0x61,0x74,0x46,0x3a,0x0f,0x40,0x73,0x6b,0x69,0x70,0x70,0x61,0x62,0x6c,0x65,0x46,0x3a,0x0a,0x40,0x77,0x61,0x69,0x74,0x54,0x3a,0x0a,0x40,0x6c,0x69,0x73,0x74,0x5b,0x12,0x6f,0x3a,0x15,0x52,0x50,0x47,0x3a,0x3a,0x4d,0x6f,0x76,0x65,0x43,0x6f,0x6d,0x6d,0x61,0x6e,0x64,0x07,0x3a,0x0a,0x40,0x63,0x6f,0x64,0x65,0x69,0x22,0x3a,0x10,0x40,0x70,0x61,0x72,0x61,0x6d,0x65,0x74,0x65,0x72,0x73,0x5b,0x06,0x69,0x0a,0x6f,0x3b,0x0a,0x07,0x3b,0x0b,0x69,0x23,0x3b,0x0c,0x5b,0x06,0x69,0x09,0x6f,0x3b,0x0a,0x07,0x3b,0x0b,0x69,0x06,0x3b,0x0c,0x5b,0x00,0x6f,0x3b,0x0a,0x07,0x3b,0x0b,0x69,0x06,0x3b,0x0c,0x5b,0x00,0x6f,0x3b,0x0a,0x07,0x3b,0x0b,0x69,0x06,0x3b,0x0c,0x5b,0x00,0x6f,0x3b,0x0a,0x07,0x3b,0x0b,0x69,0x06,0x3b,0x0c,0x5b,0x00,0x6f,0x3b,0x0a,0x07,0x3b,0x0b,0x69,0x06,0x3b,0x0c,0x5b,0x00,0x6f,0x3b,0x0a,0x07,0x3b,0x0b,0x69,0x06,0x3b,0x0c,0x5b,0x00,0x6f,0x3b,0x0a,0x07,0x3b,0x0b,0x69,0x06,0x3b,0x0c,0x5b,0x00,0x6f,0x3b,0x0a,0x07,0x3b,0x0b,0x69,0x06,0x3b,0x0c,0x5b,0x00,0x6f,0x3b,0x0a,0x07,0x3b,0x0b,0x69,0x22,0x3b,0x0c,0x5b,0x06,0x69,0x09,0x6f,0x3b,0x0a,0x07,0x3b,0x0b,0x69,0x23,0x3b,0x0c,0x5b,0x06,0x69,0x08,0x6f,0x3b,0x0a,0x07,0x3b,0x0b,0x69,0x00,0x3b,0x0c,0x5b,0x00))
  211(0)
  221()
  242(2)
  Wait(180)
  211(1)
  TeleportPlayer(0,2,148,243,2,2)
  222()
  Wait(60)
  ChangeVariable(1001,1001,0,0,19)
  ChangeVariable(1002,1002,0,0,2)
  ChangeSwitch(100,100,1)
  ChangeSwitch(94,94,1)
  ChangeSaveEnabled(1)
  If(0,4,0)
   ShowMessageFace("alice_fc5",0,0,2,28)
   ShowMessage("\\n<Alice>Somehow we managed to return safely. I nearly thought it was over for us...")
   0()
  EndIf()
  If(0,5,0)
   ShowMessageFace("iriasu_fc4",2,0,2,29)
   ShowMessage("\\n<Ilias>Somehow we managed to return safely. That was cutting it close...")
   0()
  EndIf()
  ShowMessageFace("ruka_fc1",0,0,2,30)
  ShowMessage("\\n<Luka>I'm glad we're safe but... Dad... What on earth is he...")
  If(0,4,0)
   ShowMessageFace("alice_fc5",0,0,2,31)
   ShowMessage("\\n<Alice>So that warrior was Luka's father... He was traveling between parallel worlds after all.")
   ShowMessageFace("alice_fc5",3,0,2,32)
   ShowMessage("\\n<Alice>From what I saw, he seems to have gone through a fair amount of carnage... How many battles has he fought, and against what...")
   0()
  EndIf()
  If(0,5,0)
   ShowMessageFace("iriasu_fc4",2,0,2,33)
   ShowMessage("\\n<Ilias>So Marcellus was traveling between parallel worlds after all... Why does he have that power...")
   ShowMessageFace("iriasu_fc4",2,0,2,34)
   ShowMessage("\\n<Ilias>Also, he's on a completely different level from the Marcellus I knew. How many battles has he fought, and against what...")
   0()
  EndIf()
  If(0,6,0)
   ShowMessageFace("sonia_fc1",4,0,2,35)
   ShowMessage("\\n<Sonya>But he saved you, Luka. There's no doubt he holds you dear.")
   ShowMessageFace("ruka_fc1",0,0,2,36)
   ShowMessage("\\n<Luka>...You're right. Also, Dad told me to protect this world...")
   0()
  Else()
   ShowMessageFace("ruka_fc1",0,0,2,37)
   ShowMessage("\\n<Luka>Also, Dad told me to protect this world...")
   0()
  EndIf()
  If(0,4,0)
   ShowMessageFace("alice_fc5",3,0,2,38)
   ShowMessage("\\n<Alice>The parallel world in which we met La Croix has disappeared. And at this rate, our world will disappear too.")
   0()
  EndIf()
  If(0,5,0)
   ShowMessageFace("iriasu_fc4",2,0,2,39)
   ShowMessage("\\n<Ilias>The parallel world in which we met La Croix has disappeared. And apparently our world is also headed down the same path.")
   0()
  EndIf()
  ShowMessageFace("ruka_fc1",0,0,2,40)
  ShowMessage("\\n<Luka>......")
  ShowMessageFace("",0,0,2,41)
  ShowMessage("The notes I have in my pocket are the last hope entrusted to us by a world full of despair.")
  ShowMessageFace("",0,0,2,42)
  ShowMessage("Just as we promised, we have to deliver this to the La Croix of this world, who must be somewhere out there...")
  241(bytes(0x04,0x08,0x6f,0x3a,0x0d,0x52,0x50,0x47,0x3a,0x3a,0x42,0x47,0x4d,0x08,0x3a,0x0a,0x40,0x6e,0x61,0x6d,0x65,0x49,0x22,0x14,0x73,0x63,0x65,0x6e,0x65,0x5f,0x65,0x70,0x69,0x6c,0x6f,0x67,0x75,0x65,0x31,0x06,0x3a,0x06,0x45,0x54,0x3a,0x0c,0x40,0x76,0x6f,0x6c,0x75,0x6d,0x65,0x69,0x69,0x3a,0x0b,0x40,0x70,0x69,0x74,0x63,0x68,0x69,0x69))
  If(0,6,0)
   ShowMessageFace("sonia_fc4",0,0,2,43)
   ShowMessage("\\n<Sonya>Looks like we've added another goal. Our adventure is never lacking for things to do...")
   0()
  Else()
   ShowMessageFace("ruka_fc1",0,0,2,44)
   ShowMessage("\\n<Luka>...The number of things to do has increased again.")
   0()
  EndIf()
  If(0,4,0)
   ShowMessageFace("alice_fc5",0,0,2,45)
   ShowMessage("\\n<Alice>...Perhaps, but in a way we have also achieved a previous goal. We found out that the destruction of our world is imminent.")
   ShowMessageFace("alice_fc5",0,0,2,46)
   ShowMessage("\\n<Alice>The more we deviate from the correct history, the more the rate of destruction accelerates... Your father must have known that, and has traveled to other worlds.")
   ShowMessageFace("alice_fc5",0,0,2,47)
   ShowMessage("\\n<Alice>The White Rabbit's goal is also most likely the normalization of our world... It appears that everything is connected by a single thread.")
   0()
  EndIf()
  If(0,5,0)
   ShowMessageFace("iriasu_fc4",2,0,2,48)
   ShowMessage("\\n<Ilias>...Perhaps, but in a way we have also achieved a previous goal. We found out that the chaosization of our world is near.")
   ShowMessageFace("iriasu_fc4",2,0,2,49)
   ShowMessage("\\n<Ilias>The more we deviate from the correct history, the more chaosization spreads... Knowing that, Marcellus has been traveling to parallel worlds.")
   ShowMessageFace("iriasu_fc4",2,0,2,50)
   ShowMessage("\\n<Ilias>The White Rabbit's goal is most likely the normalization of our world... Just as I expected, everything is connected by a single thread.")
   0()
  EndIf()
  If(4,41,0)
   ShowMessageFace("stein_fc2",0,0,2,51)
   ShowMessage("\\n<Promestein>And what's ahead is complete chaos. All parallel worlds will disappear, just like that one...")
   0()
  EndIf()
  ShowMessageFace("ruka_fc1",0,0,2,52)
  ShowMessage("\\n<Luka>I won't let this world turn out like that! I'll do everything in my power to make sure of it!")
  If(0,6,0)
   ShowMessageFace("sonia_fc1",0,0,2,53)
   ShowMessage("\\n<Sonya>The world is in crisis, but I'll be with you until the bitter end!")
   0()
  EndIf()
  If(4,129,0)
   ShowMessageFace("brunhild_fc1",0,0,2,54)
   ShowMessage("\\n<Hild>Hild will go too... Protecting the world is the reason Hild was built...")
   0()
  EndIf()
  If(4,79,0)
   ShowMessageFace("nuruko_fc1",0,0,2,55)
   ShowMessage("\\n<Nuruko>Kyuu! Kyuu!")
   0()
  EndIf()
  ShowMessageFace("ruka_fc1",0,0,2,56)
  ShowMessage("\\n<Luka>Well then... Let's go, everyone!")
  RunCommonEvent(305)
  355("gain_medal(30)")
  ShowMessageFace("",0,0,2,57)
  ShowMessage("The looming catastrophe and the entrusted hope. Formidable enemies yet to come and reassuring allies.")
  ShowMessageFace("",0,0,2,58)
  ShowMessage("My father's back, and the paradox full of mysteries. Ancient yoma and angels from another world.")
  ShowMessageFace("",0,0,2,59)
  ShowMessage("No matter what we see during this adventure and what awaits us at its end... with hope and conviction, we take the first step forward!")
  0()



EVENT   2
 PAGE   1
  // condition: switch 31 is ON
  0()
