﻿
DisplayName "地下水路"



EVENT   1
 PAGE   1
  0()



EVENT   2
 PAGE   1
  0()

EVENT   18
 PAGE   1
  ShowMessageFace("",0,0,2,1)
  ShowMessage("【ラザロの部下】")
  ShowMessage("御用がありましたら、どうぞ。")
  ShowMessage("転職の書も持ってきてますぜ。")
  ShowChoices(strings("全回復","物資の購入","転職・パーティ編成","用はない"),4)
  IfPlayerPicksChoice(0,null)
   ShowMessageFace("",0,0,2,2)
   ShowMessage("【ラザロの部下】")
   ShowMessage("どうぞ、薬草と霊薬の詰め合わせです。")
   250(bytes(0x04,0x08,0x6f,0x3a,0x0c,0x52,0x50,0x47,0x3a,0x3a,0x53,0x45,0x08,0x3a,0x0a,0x40,0x6e,0x61,0x6d,0x65,0x49,0x22,0x0a,0x48,0x65,0x61,0x6c,0x37,0x06,0x3a,0x06,0x45,0x54,0x3a,0x0b,0x40,0x70,0x69,0x74,0x63,0x68,0x69,0x69,0x3a,0x0c,0x40,0x76,0x6f,0x6c,0x75,0x6d,0x65,0x69,0x55))
   224(bytes(0x04,0x08,0x75,0x3a,0x0a,0x43,0x6f,0x6c,0x6f,0x72,0x25,0x00,0x00,0x00,0x00,0x00,0xe0,0x6f,0x40,0x00,0x00,0x00,0x00,0x00,0xe0,0x6f,0x40,0x00,0x00,0x00,0x00,0x00,0xe0,0x6f,0x40,0x00,0x00,0x00,0x00,0x00,0xe0,0x6f,0x40),30,true)
   314(0,0)
   ShowMessageFace("",0,0,2,3)
   ShowMessage("The party's HP and MP have been fully restored!")
   EndEventProcessing()
   0()
  IfPlayerPicksChoice(1,null)
   Shop(0,2,0,0,false)
   605(0,7,0,0)
   605(0,11,0,0)
   605(0,13,0,0)
   605(0,14,0,0)
   605(0,15,0,0)
   605(0,16,0,0)
   605(0,17,0,0)
   605(0,18,0,0)
   605(0,19,0,0)
   605(0,20,0,0)
   605(0,23,0,0)
   605(0,35,0,0)
   605(0,52,0,0)
   605(0,56,0,0)
   605(0,60,0,0)
   605(0,102,0,0)
   605(0,109,0,0)
   EndEventProcessing()
   0()
  IfPlayerPicksChoice(2,null)
   RunCommonEvent(113)
   EndEventProcessing()
   0()
  IfPlayerPicksChoice(3,null)
   EndEventProcessing()
   0()
  404()
  0()
 PAGE   2
  // condition: variable 1063 >= 13
  0()



EVENT   19
 PAGE   1
  250(bytes(0x04,0x08,0x6f,0x3a,0x0c,0x52,0x50,0x47,0x3a,0x3a,0x53,0x45,0x08,0x3a,0x0a,0x40,0x6e,0x61,0x6d,0x65,0x49,0x22,0x09,0x4d,0x6f,0x76,0x65,0x06,0x3a,0x06,0x45,0x54,0x3a,0x0b,0x40,0x70,0x69,0x74,0x63,0x68,0x69,0x69,0x3a,0x0c,0x40,0x76,0x6f,0x6c,0x75,0x6d,0x65,0x69,0x55))
  TeleportPlayer(0,716,7,42,0,0)
  0()



EVENT   20
 PAGE   1
  250(bytes(0x04,0x08,0x6f,0x3a,0x0c,0x52,0x50,0x47,0x3a,0x3a,0x53,0x45,0x08,0x3a,0x0a,0x40,0x6e,0x61,0x6d,0x65,0x49,0x22,0x09,0x4d,0x6f,0x76,0x65,0x06,0x3a,0x06,0x45,0x54,0x3a,0x0b,0x40,0x70,0x69,0x74,0x63,0x68,0x69,0x69,0x3a,0x0c,0x40,0x76,0x6f,0x6c,0x75,0x6d,0x65,0x69,0x55))
  TeleportPlayer(0,716,47,42,0,0)
  0()



EVENT   21
 PAGE   1
  250(bytes(0x04,0x08,0x6f,0x3a,0x0c,0x52,0x50,0x47,0x3a,0x3a,0x53,0x45,0x08,0x3a,0x0a,0x40,0x6e,0x61,0x6d,0x65,0x49,0x22,0x09,0x4d,0x6f,0x76,0x65,0x06,0x3a,0x06,0x45,0x54,0x3a,0x0b,0x40,0x70,0x69,0x74,0x63,0x68,0x69,0x69,0x3a,0x0c,0x40,0x76,0x6f,0x6c,0x75,0x6d,0x65,0x69,0x55))
  TeleportPlayer(0,716,21,29,0,0)
  0()



EVENT   22
 PAGE   1
  250(bytes(0x04,0x08,0x6f,0x3a,0x0c,0x52,0x50,0x47,0x3a,0x3a,0x53,0x45,0x08,0x3a,0x0a,0x40,0x6e,0x61,0x6d,0x65,0x49,0x22,0x09,0x4d,0x6f,0x76,0x65,0x06,0x3a,0x06,0x45,0x54,0x3a,0x0b,0x40,0x70,0x69,0x74,0x63,0x68,0x69,0x69,0x3a,0x0c,0x40,0x76,0x6f,0x6c,0x75,0x6d,0x65,0x69,0x55))
  TeleportPlayer(0,716,9,5,0,0)
  0()



EVENT   23
 PAGE   1
  250(bytes(0x04,0x08,0x6f,0x3a,0x0c,0x52,0x50,0x47,0x3a,0x3a,0x53,0x45,0x08,0x3a,0x0a,0x40,0x6e,0x61,0x6d,0x65,0x49,0x22,0x09,0x4d,0x6f,0x76,0x65,0x06,0x3a,0x06,0x45,0x54,0x3a,0x0b,0x40,0x70,0x69,0x74,0x63,0x68,0x69,0x69,0x3a,0x0c,0x40,0x76,0x6f,0x6c,0x75,0x6d,0x65,0x69,0x55))
  TeleportPlayer(0,716,37,9,0,0)
  0()



EVENT   24
 PAGE   1
  250(bytes(0x04,0x08,0x6f,0x3a,0x0c,0x52,0x50,0x47,0x3a,0x3a,0x53,0x45,0x08,0x3a,0x0a,0x40,0x6e,0x61,0x6d,0x65,0x49,0x22,0x09,0x4d,0x6f,0x76,0x65,0x06,0x3a,0x06,0x45,0x54,0x3a,0x0b,0x40,0x70,0x69,0x74,0x63,0x68,0x69,0x69,0x3a,0x0c,0x40,0x76,0x6f,0x6c,0x75,0x6d,0x65,0x69,0x55))
  TeleportPlayer(0,176,35,32,0,0)
  0()



EVENT   25
 PAGE   1
  If(1,1063,0,12,0)
   ShowMessageFace("lazarus3_fc1",0,0,2,1)
   ShowMessage("【ラザロ】")
   ShowMessage("おいおい、上に出るのは危険すぎるぜ。")
   ShowMessage("町に敵の目を引き付けてるって事、忘れんなよ。")
   205(-1,bytes(0x04,0x08,0x6f,0x3a,0x13,0x52,0x50,0x47,0x3a,0x3a,0x4d,0x6f,0x76,0x65,0x52,0x6f,0x75,0x74,0x65,0x09,0x3a,0x0c,0x40,0x72,0x65,0x70,0x65,0x61,0x74,0x46,0x3a,0x0f,0x40,0x73,0x6b,0x69,0x70,0x70,0x61,0x62,0x6c,0x65,0x46,0x3a,0x0a,0x40,0x77,0x61,0x69,0x74,0x54,0x3a,0x0a,0x40,0x6c,0x69,0x73,0x74,0x5b,0x07,0x6f,0x3a,0x15,0x52,0x50,0x47,0x3a,0x3a,0x4d,0x6f,0x76,0x65,0x43,0x6f,0x6d,0x6d,0x61,0x6e,0x64,0x07,0x3a,0x0a,0x40,0x63,0x6f,0x64,0x65,0x69,0x06,0x3a,0x10,0x40,0x70,0x61,0x72,0x61,0x6d,0x65,0x74,0x65,0x72,0x73,0x5b,0x00,0x6f,0x3b,0x0a,0x07,0x3b,0x0b,0x69,0x00,0x3b,0x0c,0x5b,0x00))
   EndEventProcessing()
   0()
  EndIf()
  ChangeSwitch(100,100,1)
  250(bytes(0x04,0x08,0x6f,0x3a,0x0c,0x52,0x50,0x47,0x3a,0x3a,0x53,0x45,0x08,0x3a,0x0a,0x40,0x6e,0x61,0x6d,0x65,0x49,0x22,0x09,0x4d,0x6f,0x76,0x65,0x06,0x3a,0x06,0x45,0x54,0x3a,0x0b,0x40,0x70,0x69,0x74,0x63,0x68,0x69,0x69,0x3a,0x0c,0x40,0x76,0x6f,0x6c,0x75,0x6d,0x65,0x69,0x55))
  TeleportPlayer(0,37,21,2,2,0)
  0()



EVENT   26
 PAGE   1
  If(12,"exist_party_persona_id?(391)")
   ShowMessageFace("mefist_fc2",0,0,2,1)
   ShowMessage("【メフィスト】")
   ShowMessage("この地下水路を通って、グランゴルド城に侵入。")
   ShowMessage("そのまま王妃を討ちます……何度も説明した通りですね。")
   0()
  Else()
   ShowMessageFace("mefist_fc1",0,0,2,2)
   ShowMessage("【メフィスト】")
   ShowMessage("この地下水路を通って、グランゴルド城に侵入。")
   ShowMessage("そのまま王妃を討ちます……何度も説明した通りですね。")
   0()
  EndIf()
  If(0,4,0)
   ShowMessageFace("alice_fc5",0,0,2,3)
   ShowMessage("【アリス】")
   ShowMessage("しかし、あちこちで魔物の気配がするな……")
   ShowMessage("気をつけろ、水路内にまで敵はいるぞ。")
   0()
  EndIf()
  If(0,5,0)
   ShowMessageFace("iriasu_fc4",2,0,2,4)
   ShowMessage("【イリアス】")
   ShowMessage("周囲に、汚らわしい魔物の気配が……")
   ShowMessage("気をつけるのです、城内はもちろん水路も敵だらけですよ。")
   0()
  EndIf()
  If(0,6,0)
   ShowMessageFace("sonia_fc1",5,0,2,5)
   ShowMessage("【ソニア】")
   ShowMessage("流石に、アリ娘のザル警備みたいには楽じゃないわね。")
   ShowMessage("気合いを入れないと！")
   0()
  Else()
   ShowMessageFace("ruka_fc1",0,0,2,6)
   ShowMessage("【ルカ】")
   ShowMessage("流石に、アリ娘のザル警備みたいには楽じゃないね……")
   ShowMessage("気合いを入れて行こう！")
   0()
  EndIf()
  If(4,171,0)
   ShowMessageFace("lizardboss_fc1",0,0,2,7)
   ShowMessage("【ミランダ】")
   ShowMessage("ふん、腕が鳴るねぇ！")
   0()
  EndIf()
  If(4,218,0)
   ShowMessageFace("nyumaou_fc1",0,0,2,8)
   ShowMessage("【牛魔王】")
   ShowMessage("みんな妾が踏み潰してくれるわ！")
   0()
  EndIf()
  ShowMessageFace("lazarus3_fc1",1,0,2,9)
  ShowMessage("【ラザロ】")
  ShowMessage("気張るな気張るな……")
  ShowMessage("肩の力抜いて行かないと、足下をすくわれちまうぜ？")
  ChangeSelfSwitch("A",0)
  0()
 PAGE   2
  // condition: self-switch A is ON
  0()



EVENT   27
 PAGE   1
  217()
  ShowMessageFace("lazarus3_fc1",1,0,2,1)
  ShowMessage("【ラザロ】")
  ShowMessage("あのハシゴを上がりゃ、いよいよ城内だ。")
  ShowMessage("だが、ルートが分かってるのはここまでだぜ。")
  If(12,"exist_party_persona_id?(391)")
   ShowMessageFace("mefist_fc2",0,0,2,2)
   ShowMessage("【メフィスト】")
   ShowMessage("グランゴルド城は、数年前に大改修が行われたのですが……")
   ShowMessage("城内に入ったスパイはいないため、現在の間取りは不明なのです。")
   0()
  Else()
   ShowMessageFace("mefist_fc1",0,0,2,3)
   ShowMessage("【メフィスト】")
   ShowMessage("グランゴルド城は、数年前に大改修が行われたのですが……")
   ShowMessage("城内に入ったスパイはいないため、現在の間取りは不明なのです。")
   0()
  EndIf()
  If(0,4,0)
   ShowMessageFace("alice_fc5",2,0,2,4)
   ShowMessage("【アリス】")
   ShowMessage("だが、行くしかあるまい――")
   ShowMessageFace("alice_fc6",0,0,2,5)
   ShowMessage("【アリス】")
   ShowMessage("気を抜くな、異様な気配が接近してくるぞ！")
   0()
  EndIf()
  If(0,5,0)
   ShowMessageFace("iriasu_fc4",2,0,2,6)
   ShowMessage("【イリアス】")
   ShowMessage("心許ないですが、行くしかありませんね――")
   ShowMessageFace("iriasu_fc4",7,0,2,7)
   ShowMessage("【イリアス】")
   ShowMessage("注意しなさい、異様な気配が接近してきます！")
   0()
  EndIf()
  250(bytes(0x04,0x08,0x6f,0x3a,0x0c,0x52,0x50,0x47,0x3a,0x3a,0x53,0x45,0x08,0x3a,0x0a,0x40,0x6e,0x61,0x6d,0x65,0x49,0x22,0x0d,0x6d,0x6f,0x6e,0x5f,0x77,0x61,0x72,0x70,0x06,0x3a,0x06,0x45,0x54,0x3a,0x0b,0x40,0x70,0x69,0x74,0x63,0x68,0x69,0x69,0x3a,0x0c,0x40,0x76,0x6f,0x6c,0x75,0x6d,0x65,0x69,0x55))
  241(bytes(0x04,0x08,0x6f,0x3a,0x0d,0x52,0x50,0x47,0x3a,0x3a,0x42,0x47,0x4d,0x08,0x3a,0x0a,0x40,0x6e,0x61,0x6d,0x65,0x49,0x22,0x0a,0x62,0x6f,0x73,0x73,0x30,0x06,0x3a,0x06,0x45,0x54,0x3a,0x0c,0x40,0x76,0x6f,0x6c,0x75,0x6d,0x65,0x69,0x69,0x3a,0x0b,0x40,0x70,0x69,0x74,0x63,0x68,0x69,0x69))
  ChangeSwitch(31,31,0)
  205(-1,bytes(0x04,0x08,0x6f,0x3a,0x13,0x52,0x50,0x47,0x3a,0x3a,0x4d,0x6f,0x76,0x65,0x52,0x6f,0x75,0x74,0x65,0x09,0x3a,0x0c,0x40,0x72,0x65,0x70,0x65,0x61,0x74,0x46,0x3a,0x0f,0x40,0x73,0x6b,0x69,0x70,0x70,0x61,0x62,0x6c,0x65,0x46,0x3a,0x0a,0x40,0x77,0x61,0x69,0x74,0x54,0x3a,0x0a,0x40,0x6c,0x69,0x73,0x74,0x5b,0x07,0x6f,0x3a,0x15,0x52,0x50,0x47,0x3a,0x3a,0x4d,0x6f,0x76,0x65,0x43,0x6f,0x6d,0x6d,0x61,0x6e,0x64,0x07,0x3a,0x0a,0x40,0x63,0x6f,0x64,0x65,0x69,0x15,0x3a,0x10,0x40,0x70,0x61,0x72,0x61,0x6d,0x65,0x74,0x65,0x72,0x73,0x5b,0x00,0x6f,0x3b,0x0a,0x07,0x3b,0x0b,0x69,0x00,0x3b,0x0c,0x5b,0x00))
  ShowSpeechBalloon(-1,1,true)
  PictureDisplay(5,"80_grangold_st03",0,0,0,0,100,100,0,0)
  PictureMove(5,null,0,0,0,0,100,100,255,0,60,true)
  ShowMessageFace("grangold_fc1",0,0,2,8)
  ShowMessage("【グランゴルド王】")
  ShowMessage("答えよ。お前達は何者だ……")
  If(12,"exist_party_persona_id?(391)")
   ShowMessageFace("mefist_fc2",2,0,2,9)
   ShowMessage("【メフィスト】")
   ShowMessage("グランゴルド王……！")
   0()
  Else()
   ShowMessageFace("mefist_fc1",2,0,2,10)
   ShowMessage("【メフィスト】")
   ShowMessage("グランゴルド王……！")
   0()
  EndIf()
  PictureClear(5)
  Wait(60)
  212(30,515,true)
  Wait(60)
  PictureDisplay(5,"80_grangold_st03",0,0,0,0,100,100,0,0)
  PictureMove(5,null,0,0,0,0,100,100,255,0,30,true)
  ShowMessageFace("grangold_fc1",0,0,2,11)
  ShowMessage("【グランゴルド王】")
  ShowMessage("何者か、答えよと言っている……")
  If(0,4,0)
   ShowMessageFace("alice_fc6",0,0,2,12)
   ShowMessage("【アリス】")
   ShowMessage("なんという魔力……人間の域を完全に超えているぞ！")
   0()
  EndIf()
  If(0,5,0)
   ShowMessageFace("iriasu_fc4",7,0,2,13)
   ShowMessage("【イリアス】")
   ShowMessage("この強大な魔力……もはや人間以外のモノに成り下がりましたね！")
   0()
  EndIf()
  If(4,163,0)
   ShowMessageFace("lily_fc1",5,0,2,14)
   ShowMessage("【リリィ】")
   ShowMessage("私達の施術なんて、可愛いものね……")
   ShowMessage("これほどのバケモノを人為的に生み出す事ができるなんて。")
   0()
  EndIf()
  ShowMessageFace("lazarus3_fc1",0,0,2,15)
  ShowMessage("【ラザロ】")
  ShowMessage("……………………")
  PictureClear(5)
  If(1,909,0,0,0)
   ChangeSwitch(1520,1520,1)
   ChangePartyMember(520,1,0)
   0()
  EndIf()
  ChangeSwitch(32,32,0)
  TeleportEvent(31,0,32,5,0)
  205(31,bytes(0x04,0x08,0x6f,0x3a,0x13,0x52,0x50,0x47,0x3a,0x3a,0x4d,0x6f,0x76,0x65,0x52,0x6f,0x75,0x74,0x65,0x09,0x3a,0x0c,0x40,0x72,0x65,0x70,0x65,0x61,0x74,0x46,0x3a,0x0f,0x40,0x73,0x6b,0x69,0x70,0x70,0x61,0x62,0x6c,0x65,0x46,0x3a,0x0a,0x40,0x77,0x61,0x69,0x74,0x54,0x3a,0x0a,0x40,0x6c,0x69,0x73,0x74,0x5b,0x07,0x6f,0x3a,0x15,0x52,0x50,0x47,0x3a,0x3a,0x4d,0x6f,0x76,0x65,0x43,0x6f,0x6d,0x6d,0x61,0x6e,0x64,0x07,0x3a,0x0a,0x40,0x63,0x6f,0x64,0x65,0x69,0x06,0x3a,0x10,0x40,0x70,0x61,0x72,0x61,0x6d,0x65,0x74,0x65,0x72,0x73,0x5b,0x00,0x6f,0x3b,0x0a,0x07,0x3b,0x0b,0x69,0x00,0x3b,0x0c,0x5b,0x00))
  ShowMessageFace("lazarus3_fc1",0,0,2,16)
  ShowMessage("【ラザロ】")
  ShowMessage("こいつの相手は、俺に任せろ。")
  ShowMessage("ルカ、お前達は先に行け。")
  If(0,6,0)
   ShowMessageFace("sonia_fc2",5,0,2,17)
   ShowMessage("【ソニア】")
   ShowMessage("ちょっと、ラザロおじさん！")
   ShowMessage("まさか、ここで死ぬ気じゃないでしょうね！")
   0()
  Else()
   ShowMessageFace("ruka_fc1",0,0,2,18)
   ShowMessage("【ルカ】")
   ShowMessage("ラザロおじさん、まさかここで死ぬ気じゃ……！")
   0()
  EndIf()
  ShowMessageFace("lazarus3_fc1",3,0,2,19)
  ShowMessage("【ラザロ】")
  ShowMessage("死ぬ気なんざねぇよ、バカタレ！")
  ShowMessage("適当にやり合って、時間を稼ぐだけだ！")
  ShowMessageFace("lazarus3_fc1",1,0,2,20)
  ShowMessage("【ラザロ】")
  ShowMessage("それにルカ……お前、躊躇なく剣を振るえるのかよ。")
  ShowMessage("こいつ、いちおうは人間なんだぜ。")
  ShowMessageFace("ruka_fc1",0,0,2,21)
  ShowMessage("【ルカ】")
  ShowMessage("……………………")
  ShowMessageFace("lazarus3_fc1",1,0,2,22)
  ShowMessage("【ラザロ】")
  ShowMessage("俺なら、躊躇なく殺れる……")
  ShowMessage("だからここは引き受けてやるよ。")
  If(1,909,0,0,0)
   ChangeSwitch(1522,1522,1)
   ChangePartyMember(522,1,0)
   0()
  EndIf()
  ChangeSwitch(33,33,0)
  TeleportEvent(32,0,32,5,0)
  205(32,bytes(0x04,0x08,0x6f,0x3a,0x13,0x52,0x50,0x47,0x3a,0x3a,0x4d,0x6f,0x76,0x65,0x52,0x6f,0x75,0x74,0x65,0x09,0x3a,0x0c,0x40,0x72,0x65,0x70,0x65,0x61,0x74,0x46,0x3a,0x0f,0x40,0x73,0x6b,0x69,0x70,0x70,0x61,0x62,0x6c,0x65,0x46,0x3a,0x0a,0x40,0x77,0x61,0x69,0x74,0x54,0x3a,0x0a,0x40,0x6c,0x69,0x73,0x74,0x5b,0x08,0x6f,0x3a,0x15,0x52,0x50,0x47,0x3a,0x3a,0x4d,0x6f,0x76,0x65,0x43,0x6f,0x6d,0x6d,0x61,0x6e,0x64,0x07,0x3a,0x0a,0x40,0x63,0x6f,0x64,0x65,0x69,0x13,0x3a,0x10,0x40,0x70,0x61,0x72,0x61,0x6d,0x65,0x74,0x65,0x72,0x73,0x5b,0x07,0x69,0xfa,0x69,0x06,0x6f,0x3b,0x0a,0x07,0x3b,0x0b,0x69,0x15,0x3b,0x0c,0x5b,0x00,0x6f,0x3b,0x0a,0x07,0x3b,0x0b,0x69,0x00,0x3b,0x0c,0x5b,0x00))
  ShowMessageFace("merlin_fc1",0,0,2,23)
  ShowMessage("【マーリン】")
  ShowMessage("それでは、私も付き合いましょう……")
  ShowMessage("王様を殴る快感、なかなか癖になるものですので。")
  ShowMessageFace("grangold_fc1",0,0,2,24)
  ShowMessage("【グランゴルド王】")
  ShowMessage("王の御前で、何を――")
  ShowMessageFace("lazarus3_fc1",0,0,2,25)
  ShowMessage("【ラザロ】")
  ShowMessage("てめぇは動くんじゃねぇよ！")
  212(29,406,true)
  ShowMessageFace("grangold_fc1",0,0,2,26)
  ShowMessage("【グランゴルド王】")
  ShowMessage("余に銃を向けるなど――")
  ShowMessageFace("merlin_fc1",0,0,2,27)
  ShowMessage("【マーリン】")
  ShowMessage("業火の息吹、灼熱の悪夢をもたらせ……ブレイズ！")
  212(29,507,true)
  ShowMessageFace("merlin_fc1",0,0,2,28)
  ShowMessage("【マーリン】")
  ShowMessage("失礼……一度、王を焼いてみたかったもので。")
  PictureDisplay(5,"80_grangold_st03",0,0,0,0,100,100,0,0)
  PictureMove(5,null,0,0,0,0,100,100,255,0,30,true)
  ShowMessageFace("grangold_fc1",0,0,2,29)
  ShowMessage("【グランゴルド王】")
  ShowMessage("……よかろう。")
  ShowMessage("王の力、その目で見よ……")
  250(bytes(0x04,0x08,0x6f,0x3a,0x0c,0x52,0x50,0x47,0x3a,0x3a,0x53,0x45,0x08,0x3a,0x0a,0x40,0x6e,0x61,0x6d,0x65,0x49,0x22,0x0e,0x6d,0x6f,0x6e,0x5f,0x70,0x6f,0x77,0x65,0x72,0x06,0x3a,0x06,0x45,0x54,0x3a,0x0b,0x40,0x70,0x69,0x74,0x63,0x68,0x69,0x69,0x3a,0x0c,0x40,0x76,0x6f,0x6c,0x75,0x6d,0x65,0x69,0x55))
  ShowMessageFace("",0,0,2,30)
  ShowMessage("グランゴルドの魔力が、爆発的に膨れ上がった！")
  ShowMessage("力の奔流は、その肉体を異形のものに変えていく！")
  ShowMessageFace("lazarus3_fc1",4,0,2,31)
  ShowMessage("【ラザロ】")
  ShowMessage("爺さん、足止めって言っただろうが！")
  ShowMessage("思いっきり煽ってんじゃねぇ！")
  ShowMessageFace("merlin_fc1",0,0,2,32)
  ShowMessage("【マーリン】")
  ShowMessage("すみません、つい盛り上がってしまって……")
  250(bytes(0x04,0x08,0x6f,0x3a,0x0c,0x52,0x50,0x47,0x3a,0x3a,0x53,0x45,0x08,0x3a,0x0a,0x40,0x6e,0x61,0x6d,0x65,0x49,0x22,0x0b,0x57,0x69,0x6e,0x64,0x31,0x30,0x06,0x3a,0x06,0x45,0x54,0x3a,0x0b,0x40,0x70,0x69,0x74,0x63,0x68,0x69,0x69,0x3a,0x0c,0x40,0x76,0x6f,0x6c,0x75,0x6d,0x65,0x69,0x55))
  PictureDisplay(7,"ct_grangold1",0,0,0,0,100,100,0,0)
  PictureMove(7,null,0,0,0,0,100,100,255,0,30,true)
  ShowMessageFace("grangold_fc1",0,0,2,33)
  ShowMessage("【グランゴルド王】")
  ShowMessage("これが、我が力……")
  ShowMessage("我が血脈を宿す、真の器……")
  PictureMove(7,null,0,0,0,0,100,100,255,0,30,true)
  PictureClear(7)
  Wait(60)
  250(bytes(0x04,0x08,0x6f,0x3a,0x0c,0x52,0x50,0x47,0x3a,0x3a,0x53,0x45,0x08,0x3a,0x0a,0x40,0x6e,0x61,0x6d,0x65,0x49,0x22,0x0b,0x4d,0x61,0x67,0x69,0x63,0x32,0x06,0x3a,0x06,0x45,0x54,0x3a,0x0b,0x40,0x70,0x69,0x74,0x63,0x68,0x69,0x69,0x3a,0x0c,0x40,0x76,0x6f,0x6c,0x75,0x6d,0x65,0x69,0x55))
  PictureDisplay(10,"sys_white",0,0,0,0,100,100,0,0)
  PictureMove(10,null,0,0,0,0,100,100,255,0,30,true)
  PictureDisplay(5,"80_grangold_st11",0,0,0,0,100,100,255,0)
  ChangeSwitch(34,34,0)
  PictureMove(10,null,0,0,0,0,100,100,0,0,30,true)
  PictureClear(10)
  241(bytes(0x04,0x08,0x6f,0x3a,0x0d,0x52,0x50,0x47,0x3a,0x3a,0x42,0x47,0x4d,0x08,0x3a,0x0a,0x40,0x6e,0x61,0x6d,0x65,0x49,0x22,0x0c,0x62,0x6f,0x73,0x73,0x30,0x2d,0x34,0x06,0x3a,0x06,0x45,0x54,0x3a,0x0c,0x40,0x76,0x6f,0x6c,0x75,0x6d,0x65,0x69,0x69,0x3a,0x0b,0x40,0x70,0x69,0x74,0x63,0x68,0x69,0x69))
  ShowMessageFace("",0,0,2,34)
  ShowMessage("王はその身を異形へと変えた！")
  ShowMessageFace("grangold_fc2",0,0,2,35)
  ShowMessage("【グランゴルド王】")
  ShowMessage("その命……王に捧げよ……")
  ShowMessageFace("ruka_fc1",0,0,2,36)
  ShowMessage("【ルカ】")
  ShowMessage("ラザロおじさん！　あれ、普通じゃない！")
  ShowMessageFace("lazarus3_fc1",3,0,2,37)
  ShowMessage("【ラザロ】")
  ShowMessage("おい、ルカ……")
  ShowMessage("俺は、あれ見て「普通だなー」って思ってるようなマヌケか？")
  ShowMessageFace("merlin_fc1",0,0,2,38)
  ShowMessage("【マーリン】")
  ShowMessage("これは、なかなか強烈ですね……")
  ShowMessage("まともにやり合ったら、間違いなく死ぬかと。")
  ShowMessageFace("lazarus3_fc1",3,0,2,39)
  ShowMessage("【ラザロ】")
  ShowMessage("ほらルカ、なにモタモタしてんだ！")
  ShowMessage("さっさと行け！")
  ShowMessageFace("ruka_fc1",0,0,2,40)
  ShowMessage("【ルカ】")
  ShowMessage("で、でも……あんなの……")
  ShowMessage("僕達全員で力を合わせないと！")
  ShowMessageFace("lazarus3_fc1",3,0,2,41)
  ShowMessage("【ラザロ】")
  ShowMessage("俺はお前と違って、格上とやり合うのにも慣れてるんだよ！")
  ShowMessage("お前がそこで、モタモタしてなかったらな！")
  If(0,4,0)
   ShowMessageFace("alice_fc5",2,0,2,42)
   ShowMessage("【アリス】")
   ShowMessage("ルカ、先を急ぐぞ！")
   ShowMessage("我々が手をこまねいていては、ラザロ達が自分のペースで戦えん！")
   0()
  EndIf()
  If(0,5,0)
   ShowMessageFace("iriasu_fc4",7,0,2,43)
   ShowMessage("【イリアス】")
   ShowMessage("先を急ぎますよ、ルカ！")
   ShowMessage("我々が手をこまねいていては、ラザロ達が自分のペースで戦えません！")
   0()
  EndIf()
  If(0,6,0)
   ShowMessageFace("sonia_fc2",5,0,2,44)
   ShowMessage("【ソニア】")
   ShowMessage("ラザロおじさん、マーリンさん、絶対に死なないでね！")
   ShowMessage("私達は、ちゃんと務めを果たすから！")
   0()
  EndIf()
  ShowMessageFace("ruka_fc1",0,0,2,45)
  ShowMessage("【ルカ】")
  ShowMessage("この場は任せたよ……行くぞっ！")
  PictureClear(5)
  Wait(60)
  205(-1,bytes(0x04,0x08,0x6f,0x3a,0x13,0x52,0x50,0x47,0x3a,0x3a,0x4d,0x6f,0x76,0x65,0x52,0x6f,0x75,0x74,0x65,0x09,0x3a,0x0c,0x40,0x72,0x65,0x70,0x65,0x61,0x74,0x46,0x3a,0x0f,0x40,0x73,0x6b,0x69,0x70,0x70,0x61,0x62,0x6c,0x65,0x54,0x3a,0x0a,0x40,0x77,0x61,0x69,0x74,0x54,0x3a,0x0a,0x40,0x6c,0x69,0x73,0x74,0x5b,0x0a,0x6f,0x3a,0x15,0x52,0x50,0x47,0x3a,0x3a,0x4d,0x6f,0x76,0x65,0x43,0x6f,0x6d,0x6d,0x61,0x6e,0x64,0x07,0x3a,0x0a,0x40,0x63,0x6f,0x64,0x65,0x69,0x09,0x3a,0x10,0x40,0x70,0x61,0x72,0x61,0x6d,0x65,0x74,0x65,0x72,0x73,0x5b,0x00,0x6f,0x3b,0x0a,0x07,0x3b,0x0b,0x69,0x09,0x3b,0x0c,0x5b,0x00,0x6f,0x3b,0x0a,0x07,0x3b,0x0b,0x69,0x09,0x3b,0x0c,0x5b,0x00,0x6f,0x3b,0x0a,0x07,0x3b,0x0b,0x69,0x09,0x3b,0x0c,0x5b,0x00,0x6f,0x3b,0x0a,0x07,0x3b,0x0b,0x69,0x00,0x3b,0x0c,0x5b,0x00))
  250(bytes(0x04,0x08,0x6f,0x3a,0x0c,0x52,0x50,0x47,0x3a,0x3a,0x53,0x45,0x08,0x3a,0x0a,0x40,0x6e,0x61,0x6d,0x65,0x49,0x22,0x09,0x4d,0x6f,0x76,0x65,0x06,0x3a,0x06,0x45,0x54,0x3a,0x0b,0x40,0x70,0x69,0x74,0x63,0x68,0x69,0x69,0x3a,0x0c,0x40,0x76,0x6f,0x6c,0x75,0x6d,0x65,0x69,0x55))
  211(0)
  ShowMessageFace("lazarus3_fc1",0,0,2,46)
  ShowMessage("【ラザロ】")
  ShowMessage("さぁて、せいぜい時間を稼がなきゃな。")
  ShowMessage("さもなきゃ、差し違えてでも――")
  ShowMessageFace("merlin_fc1",0,0,2,47)
  ShowMessage("【マーリン】")
  ShowMessage("若者との約束、そう無下にするべきではないかと。")
  ShowMessage("ここであなたが死ねば、彼らは安易な自己犠牲を学んでしまいますよ。")
  ShowMessageFace("lazarus3_fc1",1,0,2,48)
  ShowMessage("【ラザロ】")
  ShowMessage("そりゃ、良くねぇなぁ……")
  ShowMessage("しゃあない、生きて戻ってやるか。")
  ShowMessageFace("grangold_fc2",0,0,2,49)
  ShowMessage("【グランゴルド王】")
  ShowMessage("捧げよ……その命……")
  ShowMessageFace("lazarus3_fc1",0,0,2,50)
  ShowMessage("【ラザロ】")
  ShowMessage("遮蔽物もそこそこあるし、天井もある。")
  ShowMessage("せいぜい時間を稼いでやるか！")
  ShowMessageFace("merlin_fc1",0,0,2,51)
  ShowMessage("【マーリン】")
  ShowMessage("それでは、参りましょう――")
  Wait(60)
  221()
  241(bytes(0x04,0x08,0x6f,0x3a,0x0d,0x52,0x50,0x47,0x3a,0x3a,0x42,0x47,0x4d,0x08,0x3a,0x0a,0x40,0x6e,0x61,0x6d,0x65,0x49,0x22,0x00,0x06,0x3a,0x06,0x45,0x54,0x3a,0x0c,0x40,0x76,0x6f,0x6c,0x75,0x6d,0x65,0x69,0x69,0x3a,0x0b,0x40,0x70,0x69,0x74,0x63,0x68,0x69,0x69))
  ShowMessageFace("",0,0,2,52)
  ShowMessage("ラザロとマーリンが仲間から離れた……")
  Wait(60)
  211(1)
  TeleportPlayer(0,176,35,32,0,2)
  0()
 PAGE   2
  // condition: variable 1063 >= 13
  0()



EVENT   28
 PAGE   1
  250(bytes(0x04,0x08,0x6f,0x3a,0x0c,0x52,0x50,0x47,0x3a,0x3a,0x53,0x45,0x08,0x3a,0x0a,0x40,0x6e,0x61,0x6d,0x65,0x49,0x22,0x0a,0x43,0x68,0x65,0x73,0x74,0x06,0x3a,0x06,0x45,0x54,0x3a,0x0b,0x40,0x70,0x69,0x74,0x63,0x68,0x69,0x69,0x3a,0x0c,0x40,0x76,0x6f,0x6c,0x75,0x6d,0x65,0x69,0x55))
  205(0,bytes(0x04,0x08,0x6f,0x3a,0x13,0x52,0x50,0x47,0x3a,0x3a,0x4d,0x6f,0x76,0x65,0x52,0x6f,0x75,0x74,0x65,0x09,0x3a,0x0c,0x40,0x72,0x65,0x70,0x65,0x61,0x74,0x46,0x3a,0x0f,0x40,0x73,0x6b,0x69,0x70,0x70,0x61,0x62,0x6c,0x65,0x46,0x3a,0x0a,0x40,0x77,0x61,0x69,0x74,0x54,0x3a,0x0a,0x40,0x6c,0x69,0x73,0x74,0x5b,0x0b,0x6f,0x3a,0x15,0x52,0x50,0x47,0x3a,0x3a,0x4d,0x6f,0x76,0x65,0x43,0x6f,0x6d,0x6d,0x61,0x6e,0x64,0x07,0x3a,0x0a,0x40,0x63,0x6f,0x64,0x65,0x69,0x29,0x3a,0x10,0x40,0x70,0x61,0x72,0x61,0x6d,0x65,0x74,0x65,0x72,0x73,0x5b,0x00,0x6f,0x3b,0x0a,0x07,0x3b,0x0b,0x69,0x16,0x3b,0x0c,0x5b,0x00,0x6f,0x3b,0x0a,0x07,0x3b,0x0b,0x69,0x14,0x3b,0x0c,0x5b,0x06,0x69,0x08,0x6f,0x3b,0x0a,0x07,0x3b,0x0b,0x69,0x17,0x3b,0x0c,0x5b,0x00,0x6f,0x3b,0x0a,0x07,0x3b,0x0b,0x69,0x14,0x3b,0x0c,0x5b,0x06,0x69,0x08,0x6f,0x3b,0x0a,0x07,0x3b,0x0b,0x69,0x00,0x3b,0x0c,0x5b,0x00))
  ChangeSelfSwitch("A",0)
  ChangeInventory_Item(29,0,0,1)
  0()
 PAGE   2
  // condition: self-switch A is ON
  0()



EVENT   29
 PAGE   1
  // condition: switch 31 is ON
  0()
 PAGE   2
  // condition: switch 34 is ON
  0()



EVENT   30
 PAGE   1
  // condition: switch 2195 is ON
  241(bytes(0x04,0x08,0x6f,0x3a,0x0d,0x52,0x50,0x47,0x3a,0x3a,0x42,0x47,0x4d,0x08,0x3a,0x0a,0x40,0x6e,0x61,0x6d,0x65,0x49,0x22,0x0a,0x6b,0x69,0x6b,0x69,0x32,0x06,0x3a,0x06,0x45,0x54,0x3a,0x0c,0x40,0x76,0x6f,0x6c,0x75,0x6d,0x65,0x69,0x69,0x3a,0x0b,0x40,0x70,0x69,0x74,0x63,0x68,0x69,0x69))
  ChangeSelfSwitch("A",0)
  TeleportEvent(31,0,32,4,2)
  TeleportEvent(32,0,30,4,8)
  ChangeSwitch(32,32,0)
  ChangeSwitch(33,33,0)
  ChangeSwitch(34,34,0)
  222()
  ShowMessageFace("lazarus3_fc1",0,0,2,1)
  ShowMessage("【ラザロ】")
  ShowMessage("爺さん、生きてるか……？")
  ShowMessageFace("merlin_fc1",0,0,2,2)
  ShowMessage("【マーリン】")
  ShowMessage("……いいえ、死んでいます。")
  ShowMessageFace("lazarus3_fc1",0,0,2,3)
  ShowMessage("【ラザロ】")
  ShowMessage("まあ、十分すぎるくらい時間は稼いだ……")
  ShowMessage("そろそろ、潮時だよな。")
  PictureDisplay(5,"80_grangold_st11",0,0,0,0,100,100,0,0)
  PictureMove(5,null,0,0,0,0,100,100,255,0,30,true)
  ShowMessageFace("grangold_fc2",0,0,2,4)
  ShowMessage("【グランゴルド王】")
  ShowMessage("……………………")
  ShowMessageFace("lazarus3_fc1",0,0,2,5)
  ShowMessage("【ラザロ】")
  ShowMessage("流石にこりゃ、逃げられねぇか……")
  250(bytes(0x04,0x08,0x6f,0x3a,0x0c,0x52,0x50,0x47,0x3a,0x3a,0x53,0x45,0x08,0x3a,0x0a,0x40,0x6e,0x61,0x6d,0x65,0x49,0x22,0x10,0x6d,0x6f,0x6e,0x5f,0x61,0x73,0x69,0x6f,0x74,0x6f,0x33,0x06,0x3a,0x06,0x45,0x54,0x3a,0x0b,0x40,0x70,0x69,0x74,0x63,0x68,0x69,0x69,0x3a,0x0c,0x40,0x76,0x6f,0x6c,0x75,0x6d,0x65,0x69,0x55))
  ShowMessageFace("merlin_fc1",0,0,2,6)
  ShowMessage("【マーリン】")
  ShowMessage("ルカさん達には、合わせる顔も――誰です？")
  PictureClear(5)
  Wait(60)
  242(1)
  ShowMessageFace("",0,0,2,7)
  ShowMessage("【？？？】")
  ShowMessage("ふむ、通りがかった縁……助力してやろう。")
  212(29,609,false)
  ShowMessageFace("grangold_fc2",0,0,2,8)
  ShowMessage("【グランゴルド王】")
  ShowMessage("…………！？")
  Wait(60)
  221()
  TeleportPlayer(0,177,30,26,8,2)
  211(1)
  ChangeSwitch(32,32,1)
  ChangeSwitch(33,33,1)
  ChangeSwitch(34,34,1)
  Wait(60)
  222()
  If(0,4,0)
   ShowMessageFace("alice_fc5",2,0,2,9)
   ShowMessage("【アリス】")
   ShowMessage("どうやら、玉座は目前のようだな……")
   ShowMessage("さあ、決戦の時だ！")
   0()
  EndIf()
  If(0,5,0)
   ShowMessageFace("iriasu_fc4",7,0,2,10)
   ShowMessage("【イリアス】")
   ShowMessage("どうやら、玉座は目前のようですね……")
   ShowMessage("今こそ、決戦の時ですよ！")
   0()
  EndIf()
  EndEventProcessing()
  0()
 PAGE   2
  // condition: self-switch A is ON
  0()



EVENT   31
 PAGE   1
  // condition: switch 32 is ON
  0()



EVENT   32
 PAGE   1
  // condition: switch 33 is ON
  0()


