﻿// EVENT 4641
Name "Dodo Meoni"

If(0,25,1)
 221()
 PictureClear(5)
 PictureClear(6)
 ShowMessageFace("",0,0,2,1)
 ShowMessage("......")
 242(2)
 Wait(120)
 241(bytes(0x04,0x08,0x6f,0x3a,0x0d,0x52,0x50,0x47,0x3a,0x3a,0x42,0x47,0x4d,0x08,0x3a,0x0a,0x40,0x6e,0x61,0x6d,0x65,0x49,0x22,0x0c,0x63,0x61,0x73,0x74,0x6c,0x65,0x36,0x06,0x3a,0x06,0x45,0x54,0x3a,0x0c,0x40,0x76,0x6f,0x6c,0x75,0x6d,0x65,0x69,0x69,0x3a,0x0b,0x40,0x70,0x69,0x74,0x63,0x68,0x69,0x69))
 EndEventProcessing()
 0()
EndIf()
PictureDisplay(5,"80_dodome_st01",0,0,0,0,100,100,255,0)
ShowMessageFace("dodome_fc1",0,0,2,2)
ShowMessage("\\n<Manako>Eh? You want me to suck you off?")
ShowMessageFace("",0,0,2,3)
ShowMessage("\\n<Luka>P-please...")
PictureDisplay(5,"80_dodome_st02",0,0,0,0,100,100,255,0)
ShowMessageFace("dodome_fc1",1,0,2,4)
ShowMessage("\\n<Manako>Well if you wanted it can't be helped I guess. \nYour semen, I will have plenty of it...")
ShowMessageFace("",0,0,2,5)
ShowMessage("Manako approaches me.")
ShowMessage("She brings her face close to my already erect penis.")
241(bytes(0x04,0x08,0x6f,0x3a,0x0d,0x52,0x50,0x47,0x3a,0x3a,0x42,0x47,0x4d,0x08,0x3a,0x0a,0x40,0x6e,0x61,0x6d,0x65,0x49,0x22,0x09,0x65,0x72,0x6f,0x31,0x06,0x3a,0x06,0x45,0x54,0x3a,0x0c,0x40,0x76,0x6f,0x6c,0x75,0x6d,0x65,0x69,0x69,0x3a,0x0b,0x40,0x70,0x69,0x74,0x63,0x68,0x69,0x69))
PictureDisplay(5,"ev_dodome_h1",0,0,0,0,100,100,0,0)
PictureMove(5,null,0,0,0,0,100,100,255,0,30,true)
ShowMessageFace("dodome_fc1",1,0,2,6)
ShowMessage("\\n<Manako>Oh my you're this big already... \nYou're looking forward to this aren't you?")
ShowMessageFace("",0,0,2,7)
ShowMessage("\\n<Luka>......")
ShowMessageFace("",0,0,2,8)
ShowMessage("Manako buries her face in my crotch laughing mockingly.")
ShowMessage("A feeling of shame takes over my entire being.")
ShowMessageFace("dodome_fc1",1,0,2,9)
ShowMessage("\\n<Manako>Haha, don't worry I'll do exactly what you're expecting. \nRight, I'll pleasure you with my mouth.")
245(bytes(0x04,0x08,0x6f,0x3a,0x0d,0x52,0x50,0x47,0x3a,0x3a,0x42,0x47,0x53,0x08,0x3a,0x0a,0x40,0x6e,0x61,0x6d,0x65,0x49,0x22,0x10,0x6d,0x6f,0x6e,0x5f,0x68,0x76,0x6f,0x69,0x63,0x65,0x31,0x06,0x3a,0x06,0x45,0x54,0x3a,0x0c,0x40,0x76,0x6f,0x6c,0x75,0x6d,0x65,0x69,0x55,0x3a,0x0b,0x40,0x70,0x69,0x74,0x63,0x68,0x69,0x69))
PictureDisplay(5,"ev_dodome_h2",0,0,0,0,100,100,255,0)
ShowMessageFace("dodome_fc1",1,0,2,10)
ShowMessage("\\n<Manako>*Lick*... *Lick*...")
ShowMessageFace("",0,0,2,11)
ShowMessage("Manako sticks out her tongue and starts gently licking my back muscle.")
ShowMessage("A strange feeling comes over me as her rough tongue coats the back of my glans with her saliva.")
ShowMessageFace("",0,0,2,12)
ShowMessage("\\n<Luka>Ooooh...!")
ShowMessageFace("",0,0,2,13)
ShowMessage("Despite trying to hold back I let out a a moan in reaction to the tickling sensations.")
ShowMessage("My hips buck in surprise to Manako's stimulation.")
ShowMessageFace("dodome_fc1",1,0,2,14)
ShowMessage("\\n<Manako>You started moaning just because I licked you a bit... \nYou're so pathetic.")
PictureDisplay(5,"ev_dodome_h3",0,0,0,0,100,100,255,0)
ShowMessageFace("dodome_fc1",1,0,2,15)
ShowMessage("\\n<Manako>But your penis tastes great... \nReally, really great... *Lick*, *Lick*.")
ShowMessageFace("",0,0,2,16)
ShowMessage("\\n<Luka>Hnnngh...!")
ShowMessageFace("",0,0,2,17)
ShowMessage("Manako's tongue crawls over my urethral opening.")
ShowMessage("She uses it to poke inside it gently and taste more of my penis.")
ShowMessageFace("",0,0,2,18)
ShowMessage("At the same time her tongue brushes over my glans.")
ShowMessage("Her slick tongue expertly stimulates my urethral opening and glans at the same time.")
ShowMessageFace("",0,0,2,19)
ShowMessage("\\n<Luka>Ah... Aaaah...! \nS-stop... Let me go!")
ShowMessageFace("",0,0,2,20)
ShowMessage("This ticking pleasure keeps on hitting my weak points.")
ShowMessage("Unable to control myself my hips start shaking.")
ShowMessageFace("dodome_fc1",1,0,2,21)
ShowMessage("\\n<Manako>Haha your hips are moving on their own. \nAre you already about to come?")
PictureDisplay(5,"ev_dodome_h4",0,0,0,0,100,100,255,0)
ShowMessageFace("",0,0,2,22)
ShowMessage("Manako's tongue crawls over my entire glans diligently.")
ShowMessage("From the back muscle to the tip of my penis and all over my glans no spot is left untouched.")
ShowMessageFace("",0,0,2,23)
ShowMessage("She spreads her saliva all over the head of my penis with her rough tongue.")
ShowMessage("I feel that tickling sensation all over my penis.")
ShowMessageFace("",0,0,2,24)
ShowMessage("\\n<Luka>Aaaah...!　That feels so good...")
ShowMessageFace("dodome_fc1",1,0,2,25)
ShowMessage("\\n<Manako>Fufufu... Your glans has a strong taste. \nDo you wash it properly? *Lick* *Lick*")
ShowMessageFace("dodome_fc1",1,0,2,26)
ShowMessage("\\n<Manako>Well, I like the way it tastes... \n*Lick* *Lick*")
ShowMessageFace("",0,0,2,27)
ShowMessage("\\n<Luka>Ngh... Aaaah...!")
ShowMessageFace("",0,0,2,28)
ShowMessage("The tickling sensation of her tongue on my glans gets more intense.")
ShowMessage("All of a sudden the feeling of my impending ejaculation shoots up my spine.")
ShowMessageFace("",0,0,2,29)
ShowMessage("\\n<Luka>Aah...!　I'm coming...!")
ShowMessageFace("dodome_fc1",1,0,2,30)
ShowMessage("\\n<Manako>...Eh? Can't take it anymore? \nBut I've only tasted your tip a bit...")
ShowMessageFace("",0,0,2,31)
ShowMessage("\\n<Luka>Ngh... Aaaah...!!")
RunCommonEvent(104)
PictureDisplay(5,"ev_dodome_h5",0,0,0,0,100,100,255,0)
RunCommonEvent(105)
ShowMessageFace("",0,0,2,32)
ShowMessage("I'm brought to a pitiful finish just from having my glans licked.")
ShowMessage("My body shakes, basking in the afterglow of the orgasm.")
PictureDisplay(5,"ev_dodome_h6",0,0,0,0,100,100,255,0)
ShowMessageFace("dodome_fc1",1,0,2,33)
ShowMessage("\\n<Manako>Haha, you already came... \nI didn't intend to make you cum but your penis is so weak ♪")
ShowMessageFace("",0,0,2,34)
ShowMessage("\\n<Luka>Unnngh...")
ShowMessageFace("",0,0,2,35)
ShowMessage("Manako giggles as her tongue keeps crawling over my glans.")
ShowMessage("Having my sensitive tip stimulated right after ejaculating makes me leak out a weak groan.")
ShowMessageFace("dodome_fc1",1,0,2,36)
ShowMessage("\\n<Manako>You came so much... \n*Lick* *Lick*")
ShowMessageFace("",0,0,2,37)
ShowMessage("She slowly licks away the semen I just released.")
ShowMessage("My body shakes at the feeling of her tongue caressing my glans.")
ShowMessageFace("",0,0,2,38)
ShowMessage("\\n<Luka>Ahii...! Ah, Aaah...!!")
ShowMessageFace("dodome_fc1",1,0,2,39)
ShowMessage("\\n<Manako>Haha, you're really sensitive aren't you? \nWell then...I'll bully your penis even more.")
PictureDisplay(5,"ev_dodome_h7",0,0,0,0,100,100,255,0)
ShowMessageFace("dodome_fc1",1,0,2,40)
ShowMessage("\\n<Manako>*Lick* \n*Lick* *Lick* *Lick*")
ShowMessageFace("",0,0,2,41)
ShowMessage("Manako's tongue stretches out of her mouth and coils around my whole penis!")
ShowMessage("Her tongue rolls up my penis like a snake about to devour its prey!")
ShowMessageFace("",0,0,2,42)
ShowMessage("\\n<Luka>Ah... Aaaah...!!")
ShowMessageFace("dodome_fc1",1,0,2,43)
ShowMessage("\\n<Manako>*Lick* \nWhen I do this any man immediately surrenders.")
ShowMessageFace("dodome_fc1",1,0,2,44)
ShowMessage("\\n<Manako>If I do this a bit you'll cum too. \nYou'll be finished in no time.")
ShowMessageFace("",0,0,2,45)
ShowMessage("\\n<Luka>Nnngh... Aaaah...!!")
ShowMessageFace("",0,0,2,46)
ShowMessage("My whole penis is engulfed by her tongue and thoroughly licked.")
ShowMessage("Her tongue skillfully crawls all over my penis from the base to the tip.")
ShowMessageFace("",0,0,2,47)
ShowMessage("Her tongue also squeezes me making me tremble with each movement.")
ShowMessage("She gives more attention to my glans.")
ShowMessageFace("dodome_fc1",1,0,2,48)
ShowMessage("\\n<Manako>I know this is your weak spot... \nI'll make you cum again in no time.")
ShowMessageFace("dodome_fc1",1,0,2,49)
ShowMessage("\\n<Manako>Hoora, I'll finish you off quickly. \nYou'll shoot out your pathetic cum while I lick you!")
ShowMessageFace("",0,0,2,50)
ShowMessage("Her tongue tightens around my glans and squeezes it.")
ShowMessage("My penis feels like it's being held by a hand while my glans is licked thoroughly.")
ShowMessageFace("",0,0,2,51)
ShowMessage("\\n<Luka>Ah, Aaaaaah!!")
ShowMessageFace("",0,0,2,52)
ShowMessage("These sensations are enough to drive me over the edge.")
ShowMessage("The sense of release takes over me as her tongue gently massages my glans.")
RunCommonEvent(104)
PictureDisplay(5,"ev_dodome_h8",0,0,0,0,100,100,255,0)
RunCommonEvent(105)
ShowMessageFace("",0,0,2,53)
ShowMessage("\\n<Luka>Nnngh...")
ShowMessageFace("",0,0,2,54)
ShowMessage("A large amount of semen flows out of my penis, painting Manako's tongue.")
ShowMessage("Still licking my glans she scoops up all my semen savoring its taste.")
ShowMessageFace("dodome_fc1",1,0,2,55)
ShowMessage("\\n<Manako>*Lick* *Slurp* Fufufu, an instant kill. \nI squeezed out so much from you, you're a naughty boy.")
ShowMessageFace("",0,0,2,56)
ShowMessage("\\n<Luka>Unnngh...")
ShowMessageFace("",0,0,2,57)
ShowMessage("Her slippery tongue gathers up and skillfully licks all the semen I shot out.")
ShowMessage("My body goes numb as I taste this pleasure.")
ShowMessageFace("",0,0,2,58)
ShowMessage("All the semen I let out ends up as nourishment for Manako.")
ShowMessage("That thought completely breaks me.")
246(2)
221()
PictureClear(5)
ShowMessageFace("",0,0,2,59)
ShowMessage("......")
242(2)
Wait(120)
241(bytes(0x04,0x08,0x6f,0x3a,0x0d,0x52,0x50,0x47,0x3a,0x3a,0x42,0x47,0x4d,0x08,0x3a,0x0a,0x40,0x6e,0x61,0x6d,0x65,0x49,0x22,0x0c,0x63,0x61,0x73,0x74,0x6c,0x65,0x36,0x06,0x3a,0x06,0x45,0x54,0x3a,0x0c,0x40,0x76,0x6f,0x6c,0x75,0x6d,0x65,0x69,0x69,0x3a,0x0b,0x40,0x70,0x69,0x74,0x63,0x68,0x69,0x69))
0()
